{
  "Banbeu_IEMs": {
    "name": "Banbeu IEMs",
    "official_url": "https://banbeu.com",
    "share_url": "https://banbeu.com/graph/tool/?share=",
    "datasource": "https://rohsa.gitlab.io/fr_similarity_calculator/Banbeu%20IEMs.json",
    "iframe_available": false
  },
  "Crinacle_IEMs": {
    "name": "Crinacle IEMs",
    "official_url": "https://crinacle.com",
    "share_url": "https://crinacle.com/graphing/tooliemfree.html?share=",
    "datasource": "https://rohsa.gitlab.io/fr_similarity_calculator/Crinacle%20IEMs.json",
    "iframe_available": true
  },
  "Crinacle_Headphones": {
    "name": "Crinacle Headphones",
    "official_url": "https://crinacle.com",
    "share_url": "https://crinacle.com/graphing/toolheadphonefree.html?share=",
    "datasource": "https://rohsa.gitlab.io/fr_similarity_calculator/Crinacle%20Headphones.json",
    "iframe_available": true
  },
  "Precog_IEMs": {
    "name": "Precog IEMs",
    "official_url": "https://precog.squig.link",
    "share_url": "https://precog.squig.link/?share=",
    "datasource": "https://rohsa.gitlab.io/fr_similarity_calculator/Precog%20IEMs.json",
    "iframe_available": true
  },
  "SuperReview_IEMs": {
    "name": "SuperReview IEMs",
    "official_url": "https://squig.link",
    "share_url": "https://squig.link/?share=",
    "datasource": "https://rohsa.gitlab.io/fr_similarity_calculator/SuperReview%20IEMs.json",
    "iframe_available": true
  },
  "TechPowerUp_IEMs": {
    "name": "TechPowerUp IEMs",
    "official_url": "https://vsg.squig.link",
    "share_url": "https://vsg.squig.link/?share=",
    "datasource": "https://rohsa.gitlab.io/fr_similarity_calculator/TechPowerUp%20IEMs.json",
    "iframe_available": true
  }
}

